 while (a>=8) {
                if (tableBody.rows.length == 6) {
                    var test = 9;
                    break;
                }

                tableBody.deleteRow(6);
            }

            if (gl_selectedItem == null) {
                return gl_selectedItem ;
            }
}
//After code:
If (b>=88){
	return 123456;
}
master